[
 {
  "Description": "Discord client secret",
  "StartLine": 4,
  "EndLine": 4,
  "StartColumn": 3,
  "EndColumn": 61,
  "Match": "discord_client_secret := \"8dyfuiRyq=vVc3RRr_edRk-fK__JItpZ\"",
  "Secret": "8dyfuiRyq=vVc3RRr_edRk-fK__JItpZ",
  "File": "discord.go",
  "Commit": "e35b8385187f72c09431bbb18c197b057f4edafb",
  "Entropy": 0,
  "Author": "Zach Rice",
  "Email": "zrice@gitlab.com",
  "Date": "2021-12-03 15:30:55 -0600 CST",
  "Message": "adding discord secret",
  "Tags": [],
  "RuleID": "discord-client-secret"
 },
 {
  "Description": "AWS Access Key",
  "StartLine": 22,
  "EndLine": 22,
  "StartColumn": 16,
  "EndColumn": 35,
  "Match": "AKIALALEMEL33243OLIA",
  "Secret": "AKIALALEMEL33243OLIA",
  "File": "main.go",
  "Commit": "6f2f3286e0688080de0a7782cc4781646cc5102a",
  "Entropy": 0,
  "Author": "Zach Rice",
  "Email": "zrice@gitlab.com",
  "Date": "2021-12-03 15:28:34 -0600 CST",
  "Message": "init with secret, opps",
  "Tags": ["aws", "revocation_type"],
  "RuleID": "aws-access-token"
 }
]
